<?xml version="1.0" encoding="UTF-8"?>
<svg width="350px" height="116px" viewBox="0 0 350 116" version="1.1" xmlns="http://www.w3.org/2000/svg" xmlns:xlink="http://www.w3.org/1999/xlink">
    <!-- Generator: Sketch 53.2 (72643) - https://sketchapp.com -->
    <title>horarios</title>
    <desc>Created with Sketch.</desc>
    <g id="Page-1" stroke="none" stroke-width="1" fill="none" fill-rule="evenodd">
        <g id="DADA-BAR" transform="translate(-224.000000, -2761.000000)">
            <g id="horarios" transform="translate(224.000000, 2761.000000)">
                <rect id="Rectangle-13" stroke="#FFFFFF" fill-opacity="0.1" fill="#B6ABFF" x="200.5" y="0.5" width="99" height="33"></rect>
                <rect id="Rectangle-13" stroke="#FFFFFF" fill-opacity="0.1" fill="#FFFFFF" x="50.5" y="82.5" width="149" height="33"></rect>
                <rect id="Rectangle-5" stroke="#FFFFFF" x="0.5" y="33.5" width="49" height="49"></rect>
                <rect id="Rectangle-5" stroke="#FFFFFF" fill-opacity="0.0975147192" fill="#FFFFFF" x="50.5" y="33.5" width="49" height="49"></rect>
                <rect id="Rectangle-5" stroke="#FFFFFF" fill-opacity="0.0975147192" fill="#FFFFFF" x="1.5" y="33.5" width="49" height="49"></rect>
                <rect id="Rectangle-5" stroke="#FFFFFF" fill-opacity="0.0975147192" fill="#FFFFFF" x="100.5" y="33.5" width="49" height="49"></rect>
                <rect id="Rectangle-5" stroke="#FFFFFF" fill-opacity="0.1" fill="#B6ABFF" x="150.5" y="33.5" width="49" height="49"></rect>
                <rect id="Rectangle-5" stroke="#FFFFFF" fill-opacity="0.1" fill="#B6ABFF" x="200.5" y="33.5" width="49" height="49"></rect>
                <rect id="Rectangle-5" stroke="#FFFFFF" fill-opacity="0.1" fill="#B6ABFF" x="250.5" y="33.5" width="49" height="49"></rect>
                <rect id="Rectangle-5" stroke="#FFFFFF" x="300.5" y="33.5" width="49" height="49"></rect>
                <text id="L" font-family="Quicksand-Medium, Quicksand" font-size="20" font-weight="400" fill="#FFFFFF">
                    <tspan x="20" y="63">L</tspan>
                </text>
                <text id="M" font-family="Quicksand-Medium, Quicksand" font-size="20" font-weight="400" fill="#FFFFFF">
                    <tspan x="67.28" y="63">M</tspan>
                </text>
                <text id="M" font-family="Quicksand-Medium, Quicksand" font-size="20" font-weight="400" fill="#FFFFFF">
                    <tspan x="117.28" y="63">M</tspan>
                </text>
                <text id="J" font-family="Quicksand-Medium, Quicksand" font-size="20" font-weight="400" fill="#FFFFFF">
                    <tspan x="169.9" y="63">J</tspan>
                </text>
                <text id="V" font-family="Quicksand-Medium, Quicksand" font-size="20" font-weight="400" fill="#FFFFFF">
                    <tspan x="218.28" y="63">V</tspan>
                </text>
                <text id="S" font-family="Quicksand-Medium, Quicksand" font-size="20" font-weight="400" fill="#FFFFFF">
                    <tspan x="269.18" y="63">S</tspan>
                </text>
                <text id="D" font-family="Quicksand-Medium, Quicksand" font-size="20" font-weight="400" fill="#FFFFFF">
                    <tspan x="317.33" y="63">D</tspan>
                </text>
                <text id="19:00-1:00" font-family="Quicksand-Medium, Quicksand" font-size="17" font-weight="400" fill="#FFFFFF">
                    <tspan x="86.376" y="105.5">19:00-1:00</tspan>
                </text>
                <text id="19:00-3:00" font-family="Quicksand-Medium, Quicksand" font-size="17" font-weight="400" fill="#FFFFFF">
                    <tspan x="209.931" y="23.5">19:00-3:00</tspan>
                </text>
            </g>
        </g>
    </g>
</svg>